<?xml version="1.0" encoding="UTF-8"?>
<glyph name="Z" format="1">
  <advance width="600"/>
  <unicode hex="005A"/>
  <outline>
    <contour>
      <point x="0" y="503" type="line"/>
      <point x="0" y="0" type="line"/>
      <point x="454" y="0" type="line"/>
      <point x="102" y="188" type="line"/>
    </contour>
  </outline>
</glyph>
