<?xml version="1.0" encoding="UTF-8"?>
<glyph name=".notdef" format="1">
  <advance width="512"/>
  <outline>
    <contour>
      <point x="0" y="683" type="line"/>
      <point x="0" y="0" type="line"/>
      <point x="438" y="0" type="line"/>
      <point x="438" y="683" type="line"/>
    </contour>
    <contour>
      <point x="365" y="610" type="line"/>
      <point x="365" y="73" type="line"/>
      <point x="73" y="73" type="line"/>
      <point x="73" y="610" type="line"/>
    </contour>
  </outline>
</glyph>
