<?xml version="1.0" encoding="UTF-8"?>
<glyph name="A" format="1">
  <advance width="600"/>
  <unicode hex="0041"/>
  <outline>
    <contour>
      <point x="0" y="1003" type="line"/>
      <point x="0" y="0" type="line"/>
      <point x="24" y="0" type="line"/>
      <point x="460" y="335" type="line"/>
    </contour>
  </outline>
</glyph>
