<?xml version="1.0" encoding="UTF-8"?>
<glyph name="K" format="1">
  <advance width="600"/>
  <unicode hex="004B"/>
  <outline>
    <contour>
      <point x="0" y="377" type="line"/>
      <point x="0" y="0" type="line"/>
      <point x="16" y="0" type="line"/>
      <point x="176" y="337" type="line"/>
    </contour>
  </outline>
</glyph>
