<?xml version="1.0" encoding="UTF-8"?>
<glyph name="R" format="1">
  <advance width="600"/>
  <unicode hex="0052"/>
  <outline>
    <contour>
      <point x="0" y="789" type="line"/>
      <point x="0" y="0" type="line"/>
      <point x="25" y="0" type="line"/>
      <point x="103" y="365" type="line"/>
    </contour>
  </outline>
</glyph>
