<?xml version="1.0" encoding="UTF-8"?>
<glyph name="N" format="1">
  <advance width="600"/>
  <unicode hex="004E"/>
  <outline>
    <contour>
      <point x="0" y="804" type="line"/>
      <point x="0" y="0" type="line"/>
      <point x="240" y="0" type="line"/>
      <point x="30" y="327" type="line"/>
    </contour>
  </outline>
</glyph>
